…
Get data.

# Takes hours to get all the data for the year
dat <- get_payload(start = "2018-01-01", end = "2018-12-31")

Get pitcher names from at bat data.

d2 <- inner_join(dat$pitch, dat$atbat, by=c("num", "url"))

Pick out the swinging strikes.

d2 %>% filter(des %in% c("Swinging Strike", "Swinging Strike (Blocked)")) %>% group_by(pitcher_name) %>% summarize(N=n()) %>% arrange(desc(N))

## # A tibble: 878 x 2
##    pitcher_name         N
##    <chr>            <int>
##  1 <NA>             10872
##  2 Max Scherzer       656
##  3 Jacob deGrom       583
##  4 Justin Verlander   563
##  5 Gerrit Cole        544
##  6 Blake Snell        519
##  7 Patrick Corbin     506
##  8 Carlos Carrasco    504
##  9 Chris Sale         472
## 10 Trevor Bauer       461
## # ... with 868 more rows

These names are the ones we’d expect.

Who has the highest proportion of pitches as swinging strikes?

d2 %>% filter(!is.na(pitcher_name)) %>% group_by(pitcher_name) %>% summarize(N=n(), Nss = sum(des %in% c("Swinging Strike", "Swinging Strike (Blocked)"))) %>% mutate(pSS = Nss / N) %>% arrange(desc(pSS))

## # A tibble: 940 x 4
##    pitcher_name        N   Nss   pSS
##    <chr>           <int> <int> <dbl>
##  1 Brandon Brennan     8     6 0.75 
##  2 Ben Rowen          11     8 0.727
##  3 Brady Feigl         9     6 0.667
##  4 Joe Mantiply        9     6 0.667
##  5 Andrew Schwaab     15     9 0.6  
##  6 Nick Pasquale       5     3 0.6  
##  7 Domingo Tapia      12     7 0.583
##  8 Cesar Vargas       18     9 0.5  
##  9 Joe Gunkel          6     3 0.5  
## 10 Malcom Culver      44    22 0.5  
## # ... with 930 more rows

Unsurprisingly these are only guys with few pitches.
Lets only pick out pitchers with at least 300 pitches.

d2 %>% filter(!is.na(pitcher_name)) %>% group_by(pitcher_name) %>% summarize(N=n(), Nss = sum(des %in% c("Swinging Strike", "Swinging Strike (Blocked)"))) %>% mutate(pSS = Nss / N) %>% arrange(desc(pSS)) %>% filter(N >= 300)

## # A tibble: 505 x 4
##    pitcher_name       N   Nss   pSS
##    <chr>          <int> <int> <dbl>
##  1 Josh Hader      1575   325 0.206
##  2 Hector Neris     853   176 0.206
##  3 Marcus Walden    317    65 0.205
##  4 Edwin Diaz      1266   245 0.194
##  5 Sean Doolittle   735   141 0.192
##  6 Dominic Leone    485    93 0.192
##  7 Ryan Pressly    1300   244 0.188
##  8 Jose Leclerc    1035   190 0.184
##  9 Joshua Lucas     316    57 0.180
## 10 Carson Smith     339    61 0.180
## # ... with 495 more rows

The pitchers best at missing bats are Josh Hader, Hector Neris, and Marcus Walden.
Unsurprisingly these are all relievers.

If we set a higher bar for N, we can see the best starting pitchers.

d2 %>% filter(!is.na(pitcher_name)) %>% group_by(pitcher_name) %>% summarize(N=n(), Nss = sum(des %in% c("Swinging Strike", "Swinging Strike (Blocked)"))) %>% mutate(pSS = Nss / N) %>% arrange(desc(pSS)) %>% filter(N >= 2000)

## # A tibble: 116 x 4
##    pitcher_name        N   Nss   pSS
##    <chr>           <int> <int> <dbl>
##  1 Max Scherzer     3728   656 0.176
##  2 Blake Snell      3104   519 0.167
##  3 Jacob deGrom     3634   583 0.160
##  4 Chris Sale       2944   472 0.160
##  5 Patrick Corbin   3252   506 0.156
##  6 Carlos Carrasco  3249   504 0.155
##  7 Masahiro Tanaka  2811   429 0.153
##  8 Gerrit Cole      3651   544 0.149
##  9 Jack Flaherty    2730   406 0.149
## 10 James Paxton     2738   404 0.148
## # ... with 106 more rows
…
