…
We can find the league-wide BABIP, which I think should be around .300.

sum(inplay$event %in% inplayhits) / nrow(inplay)

## [1] 0.3018916

Wow, that was really close and I hadn’t checked it beforehand.

Now we want to see how many pitchers can control this value.

First we’ll check the distribution over all pitchers above a certain number of in play at bats.

d2 %>% group_by(pitcher_name) %>% summarize(ipo=sum(event %in% inplayouts), iph=sum(event %in% inplayhits), N=iph+ipo, BABIP=iph/(iph+ipo)) %>% filter(N>100) %>% arrange(BABIP)

## # A tibble: 422 x 5
##    pitcher_name       ipo   iph     N BABIP
##    <chr>            <int> <int> <int> <dbl>
##  1 Jose Leclerc       109    26   135 0.193
##  2 Josh Fields         93    24   117 0.205
##  3 Sean Doolittle      96    25   121 0.207
##  4 Shawn Kelley       118    32   150 0.213
##  5 Pedro Strop        131    36   167 0.216
##  6 Steve Cishek       152    42   194 0.216
##  7 Kenley Jansen      159    44   203 0.217
##  8 Diego Castillo     111    31   142 0.218
##  9 Julio Teheran      397   113   510 0.222
## 10 Kyle Barraclough   115    33   148 0.223
## # ... with 412 more rows
…
Now let’s check the league BABIP again.

inplay <- d2 %>% filter(event %in% c(inplayhits, inplayouts))
sum(inplay$event %in% inplayhits) / nrow(inplay)

## [1] 0.2984605

And the pitchers with the best BABIP.

d2 %>% group_by(pitcher_name) %>% summarize(ipo=sum(event %in% inplayouts), iph=sum(event %in% inplayhits), N=iph+ipo, BABIP=iph/(iph+ipo)) %>% filter(N>100) %>% arrange(BABIP)

## # A tibble: 379 x 5
##    pitcher_name     ipo   iph     N BABIP
##    <chr>          <int> <int> <int> <dbl>
##  1 Pedro Strop      120    32   152 0.211
##  2 Jose Leclerc      80    22   102 0.216
##  3 Shawn Kelley      96    27   123 0.220
##  4 Blake Treinen    148    42   190 0.221
##  5 Julio Teheran    329    94   423 0.222
##  6 Reyes Moronta    105    30   135 0.222
##  7 Kenley Jansen    148    43   191 0.225
##  8 Josh Fields       81    24   105 0.229
##  9 Ryan Brasier      81    24   105 0.229
## 10 Diego Castillo   101    30   131 0.229
## # ... with 369 more rows
…
