…
d4$runsfromthispointtoendofinning %>% table

## .
##     -8     -7     -6     -5     -4     -3     -2     -1      0      1 
##      2     17     29     85    209    321    536    551 205506  25044 
##      2      3      4      5      6      7      8      9 
##  13407   6545   3207   1162    391    153     36     11

There’s clearly some issue here since I’m getting that negative runs can be scored.

d4 %>% filter(runsfromthispointtoendofinning>=0) %>% 
  mutate(someone_on_1b=!is.na(on_1b), someone_on_2b=!is.na(on_2b), someone_on_3b=!is.na(on_3b)) %>% 
  group_by(someone_on_1b, someone_on_2b, someone_on_3b, o) %>% summarize(meanruns=mean(runsfromthispointtoendofinning))

## # A tibble: 32 x 5
## # Groups:   someone_on_1b, someone_on_2b, someone_on_3b [8]
##    someone_on_1b someone_on_2b someone_on_3b     o meanruns
##    <lgl>         <lgl>         <lgl>         <dbl>    <dbl>
##  1 FALSE         FALSE         FALSE             0    0.861
##  2 FALSE         FALSE         FALSE             1    0.335
##  3 FALSE         FALSE         FALSE             2    0.137
##  4 FALSE         FALSE         FALSE             3    0    
##  5 FALSE         FALSE         TRUE              0    1.24 
##  6 FALSE         FALSE         TRUE              1    0.843
##  7 FALSE         FALSE         TRUE              2    0.265
##  8 FALSE         FALSE         TRUE              3    0    
##  9 FALSE         TRUE          FALSE             0    1.28 
## 10 FALSE         TRUE          FALSE             1    0.791
## # ... with 22 more rows
…
d4 %>% filter(event=="Home Run") %>% with(table(!is.na(on_1b)))

## 
## FALSE  TRUE 
##  6488  2642

But I can use on_xb_end?

d4 %>% filter(runsfromthispointtoendofinning>=0) %>% 
  mutate(someone_on_1b_end=!is.na(on_1b_end), someone_on_2b_end=!is.na(on_2b_end), someone_on_3b_end=!is.na(on_3b_end)) %>% 
  group_by(someone_on_1b_end, someone_on_2b_end, someone_on_3b_end, o) %>% summarize(meanruns=mean(runsfromthispointtoendofinning))

## # A tibble: 32 x 5
## # Groups:   someone_on_1b_end, someone_on_2b_end, someone_on_3b_end [8]
##    someone_on_1b_end someone_on_2b_end someone_on_3b_end     o meanruns
##    <lgl>             <lgl>             <lgl>             <dbl>    <dbl>
##  1 FALSE             FALSE             FALSE                 0    0.888
##  2 FALSE             FALSE             FALSE                 1    0.417
##  3 FALSE             FALSE             FALSE                 2    0.207
##  4 FALSE             FALSE             FALSE                 3    0    
##  5 FALSE             FALSE             TRUE                  0    0.840
##  6 FALSE             FALSE             TRUE                  1    0.524
##  7 FALSE             FALSE             TRUE                  2    0.220
##  8 FALSE             FALSE             TRUE                  3    0    
##  9 FALSE             TRUE              FALSE                 0    1.21 
## 10 FALSE             TRUE              FALSE                 1    0.865
## # ... with 22 more rows
…
## .
##    T 
## 4517

Can I just calculate where they all end up?

d4 %>% filter(runsfromthispointtoendofinning>=0) %>% 
    mutate(someone_on_1b_end=event=="Single" | (is.na(on_1b_end) & is.na(score_on_1b)),
           someone_on_2b_end=event=="Double" | (is.na(on_2b_end) & is.na(score_on_2b)) | (!is.na(on_1b_end) & on_1b_end=="2B"),
           someone_on_3b_end=event=="Triple" | (is.na(on_3b_end) & is.na(score_on_3b)) | (!is.na(on_2b_end) & on_2b_end=="3B") | (!is.na(on_1b_end) & on_1b_end=="3B")
    ) %>% 
    group_by(someone_on_1b_end, someone_on_2b_end, someone_on_3b_end, o) %>% summarize(meanruns=mean(runsfromthispointtoendofinning), N=n()) 

## # A tibble: 32 x 6
## # Groups:   someone_on_1b_end, someone_on_2b_end, someone_on_3b_end [8]
##    someone_on_1b_end someone_on_2b_e~ someone_on_3b_e~     o meanruns     N
##    <lgl>             <lgl>            <lgl>            <dbl>    <dbl> <int>
##  1 FALSE             FALSE            FALSE                0   0.0526    19
##  2 FALSE             FALSE            FALSE                1   0.121     58
##  3 FALSE             FALSE            FALSE                2   0.0957   115
##  4 FALSE             FALSE            FALSE                3   0       2132
##  5 FALSE             FALSE            TRUE                 0   0.833    144
##  6 FALSE             FALSE            TRUE                 1   0.683    480
##  7 FALSE             FALSE            TRUE                 2   0.338   1058
##  8 FALSE             FALSE            TRUE                 3   0       5545
##  9 FALSE             TRUE             FALSE                0   0.908     87
## 10 FALSE             TRUE             FALSE                1   0.639    360
## # ... with 22 more rows
…
